{
  "appId": "org.garbanzonegro.cicer",
  "appName": "Garbanzo Negro",
  "bundledWebRuntime": false,
  "npmClient": "npm",
  "webDir": "build",
  "server": {
    "allowNavigation": ["cicer.garbanzonegro.org"]
  },
  "plugins": {
    "SplashScreen": {
      "launchShowDuration": 0
    }
  },
  "cordova": {}
}
